…
<!-- end list -->

``` r
confirmed_cases <- newly %>% select(I = rollingmean)

R_estim <- estimate_R(confirmed_cases, 
                     method = "parametric_si", 
                     config = make_config(list(mean_si = 4.7, 
                                               std_si = 2.9)))

# Print oout the R table for inspection
R_estim$R %>%  as_tibble()
#> # A tibble: 65 x 11
#>    t_start t_end `Mean(R)` `Std(R)` `Quantile.0.025… `Quantile.0.05(…
#>      <dbl> <dbl>     <dbl>    <dbl>            <dbl>            <dbl>
#>  1       2     8      4.92    0.856             3.38             3.60
#>  2       3     9      4.43    0.643             3.26             3.43
#>  3       4    10      3.95    0.490             3.05             3.18
#>  4       5    11      3.51    0.380             2.81             2.91
#>  5       6    12      3.21    0.304             2.64             2.72
#>  6       7    13      2.93    0.247             2.46             2.53
#>  7       8    14      2.67    0.204             2.29             2.35
#>  8       9    15      2.45    0.171             2.13             2.18
#>  9      10    16      2.26    0.145             1.98             2.02
#> 10      11    17      2.05    0.124             1.81             1.85
#> # … with 55 more rows, and 5 more variables: `Quantile.0.25(R)` <dbl>,
#> #   `Median(R)` <dbl>, `Quantile.0.75(R)` <dbl>, `Quantile.0.95(R)` <dbl>,
#> #   `Quantile.0.975(R)` <dbl>
```
…
Hvis jeg ser nærmere på modellens output kan jeg se at den indeholder
værdierne for de enkelte “kasser” for hver dato. Jeg kan altså se, hvor
mange, der er indlagte på grund af Corona og hvor mange der vil være i
den nærmeste fremtid.

``` r
sir_out_df <- sir_out %>% as.data.frame() %>% 
  as_tibble()

sir_out_df$date <- (sir_out_df$time - 1) + (newly_date - days2hosp)

sir_out_df <- sir_out_df %>% select(date, time, S, I, H, R)

sir_out_df
#> # A tibble: 60 x 6
#>    date        time        S     I     H     R
#>    <date>     <dbl>    <dbl> <dbl> <dbl> <dbl>
#>  1 2020-05-05     1 5800000  3474.  226.    0 
#>  2 2020-05-06     2 5799503. 3299.  220.  678.
#>  3 2020-05-07     3 5799031. 3133.  213. 1323.
#>  4 2020-05-08     4 5798583. 2975.  207. 1935.
#>  5 2020-05-09     5 5798157. 2825.  201. 2517.
#>  6 2020-05-10     6 5797753. 2682.  194. 3070.
#>  7 2020-05-11     7 5797370. 2547.  188. 3595.
#>  8 2020-05-12     8 5797006. 2419.  182. 4094.
#>  9 2020-05-13     9 5796660. 2296.  176. 4568.
#> 10 2020-05-14    10 5796331. 2181.  170. 5018.
#> # … with 50 more rows
```
…
